…
Bi-grams

Bi-grams are useful in examining pairs of two consecutive words.

## # A tibble: 18,934 x 2
##    bigram                  n
##  * <chr>               <int>
##  1 world cup              74
##  2 prime minister         45
##  3 euro 2016              34
##  4 northern ireland       27
##  5 min romania            24
##  6 1 january              21
##  7 free kick              18
##  8 romanian government    16
##  9 eastern europe         15
## 10 victor ponta           14
## # ... with 18,924 more rows
…
As we can see, some bigrams were misidentified as positive, making the text mentioning Romania seem more positive than they really were.

Bi-grams for articles about Norway

For Norway we have even more terms misleadingly classified.

## # A tibble: 25,840 x 2
##    bigram                   n
##  * <chr>                <int>
##  1 world cup               53
##  2 single market           51
##  3 human rights            44
##  4 prime minister          37
##  5 norwegian government    34
##  6 pension fund            30
##  7 climate change          28
##  8 wealth fund             26
##  9 fossil fuel             23
## 10 fossil fuels            23
## # ... with 25,830 more rows
…
